<svg xmlns="http://www.w3.org/2000/svg" width="38.808" height="48.609" viewBox="0 0 38.808 48.609">
  <g id="Group_1528" data-name="Group 1528" transform="translate(-1289 -3087.391)">
    <g id="Rectangle_1543" data-name="Rectangle 1543" transform="translate(1289 3116.654)" fill="none" stroke="#5dff00" stroke-width="2">
      <rect width="38.808" height="10.584" rx="2" stroke="none"/>
      <rect x="1" y="1" width="36.808" height="8.584" rx="1" fill="none"/>
    </g>
    <path id="Path_11937" data-name="Path 11937" d="M4213,738v8.644" transform="translate(-2888.72 2388.356)" fill="none" stroke="#5dff00" stroke-linecap="round" stroke-width="2"/>
    <ellipse id="Ellipse_352" data-name="Ellipse 352" cx="6.197" cy="6.197" rx="6.197" ry="6.197" transform="translate(1301.697 3100.773) rotate(-80.783)" fill="none" stroke="#5dff00" stroke-linecap="round" stroke-linejoin="round" stroke-width="2"/>
    <g id="Ellipse_353" data-name="Ellipse 353" transform="translate(1304.582 3106.35) rotate(-45)" fill="#fff" stroke="#5dff00" stroke-width="2">
      <ellipse cx="2.521" cy="2.521" rx="2.521" ry="2.521" stroke="none"/>
      <ellipse cx="2.521" cy="2.521" rx="1.521" ry="1.521" fill="none"/>
    </g>
    <path id="Path_11940" data-name="Path 11940" d="M4299.986,686s-8.306,5.645,0,13.583" transform="translate(-2998.99 2415.484)" fill="none" stroke="#5dff00" stroke-width="2"/>
    <path id="Path_11938" data-name="Path 11938" d="M0,0S.029,5.645,0,13.583" transform="translate(1318.313 3101.891) rotate(20)" fill="none" stroke="#5dff00" stroke-width="2"/>
    <path id="Path_11939" data-name="Path 11939" d="M4274.271,705.25v9.085" transform="translate(-2966.124 2403.025)" fill="none" stroke="#5dff00" stroke-width="2"/>
  </g>
</svg>
